<svg width="320" height="320" viewBox="0 0 320 320" fill="none" xmlns="http://www.w3.org/2000/svg">
<circle cx="160" cy="160" r="155" stroke="black" stroke-width="10"/>
<path d="M78.1562 179.688V226H45.25V89.5H99.7188C110.156 89.5 119.375 91.4375 127.375 95.3125C135.438 99.125 141.656 104.594 146.031 111.719C150.469 118.781 152.688 126.812 152.688 135.812C152.688 149.125 147.906 159.781 138.344 167.781C128.844 175.719 115.781 179.688 99.1562 179.688H78.1562ZM78.1562 154.281H99.7188C106.094 154.281 110.938 152.688 114.25 149.5C117.625 146.312 119.312 141.812 119.312 136C119.312 129.625 117.594 124.531 114.156 120.719C110.719 116.906 106.031 114.969 100.094 114.906H78.1562V154.281ZM203.219 179.688V226H170.312V89.5H224.781C235.219 89.5 244.438 91.4375 252.438 95.3125C260.5 99.125 266.719 104.594 271.094 111.719C275.531 118.781 277.75 126.812 277.75 135.812C277.75 149.125 272.969 159.781 263.406 167.781C253.906 175.719 240.844 179.688 224.219 179.688H203.219ZM203.219 154.281H224.781C231.156 154.281 236 152.688 239.312 149.5C242.688 146.312 244.375 141.812 244.375 136C244.375 129.625 242.656 124.531 239.219 120.719C235.781 116.906 231.094 114.969 225.156 114.906H203.219V154.281Z" fill="black"/>
</svg>
